ACT6100 - TP
…
## See spec(...) for full column specifications.

## Note: Using an external vector in selections is ambiguous.
## i Use `all_of(variables_correlations_nulle)` instead of `variables_correlations_nulle` to silence this message.
## i See <https://tidyselect.r-lib.org/reference/faq-external-vector.html>.
## This message is displayed once per session.

1.3 Vrifier les doublons au niveau des noms

data %>%
  count(name,sort = TRUE)%>%
  filter(n>1)

## # A tibble: 627 x 2
##    name                   n
##    <chr>              <int>
##  1 Salvador Blackwell     3
##  2 Sid Wyatt              3
##  3 Abel Tate              2
##  4 Adaline Parrish        2
##  5 Adam Hendrix           2
##  6 Adam Solis             2
##  7 Adolfo Richardson      2
##  8 Adolfo Stone           2
##  9 Adolph Gates           2
## 10 Agustin Brooks         2
## # ... with 617 more rows
…
Exactement ce quon avait prdit, le nombre daccident diminue en fonction du nombre danne sans accident des conducteurs.

Cette variable devrait tre intressante dans nos modles.

1.9 Les variables sur les caractristiques des voitures des assurs

Regardons combien de modle nous avons dans notre base de donnes

data %>%
  count(model_vehicule,type_vehicule,marque_vehhicule,sort = TRUE)

## # A tibble: 619 x 4
##    model_vehicule type_vehicule marque_vehhicule     n
##             <dbl>         <dbl>            <dbl> <int>
##  1            571             6               47  8688
##  2            129             3                7  1952
##  3            164             4               44  1924
##  4            141             4               14  1648
##  5            217             5                9  1335
##  6            340             4               28  1198
##  7            571             4               14  1134
##  8            126             4               44  1079
##  9            208             3                9  1054
## 10            404             3               44  1020
## # ... with 609 more rows
…
